{"serialNo":"TestDeviceOne:1"}
{"serialNo":"TestDeviceOne:2"}
{"serialNo":"TestDeviceOne:3"}
{"serialNo":"TestDeviceOne:4"}
{"serialNo":"TestDeviceOne:5"}
{"serialNo":"TestDeviceOne:6"}
{"serialNo":"TestDeviceOne:7"}
{"serialNo":"TestDeviceOne:8"}
{"serialNo":"TestDeviceOne:9"}
{"serialNo":"TestDeviceOne:10"}
{"serialNo":"TestDeviceOne:11"}
{"serialNo":"TestDeviceOne:12"}
{"serialNo":"TestDeviceOne:13"}
{"serialNo":"TestDeviceOne:14"}
{"serialNo":"TestDeviceOne:15"}
{"serialNo":"TestDeviceOne:16"}
{"serialNo":"TestDeviceOne:17"}
{"serialNo":"TestDeviceOne:18"}
{"serialNo":"TestDeviceOne:19"}
{"serialNo":"TestDeviceOne:20"}
{"serialNo":"TestDeviceOne:21"}
{"serialNo":"TestDeviceOne:22"}
{"serialNo":"TestDeviceOne:23"}
{"serialNo":"TestDeviceOne:24"}
{"serialNo":"TestDeviceOne:25"}
{"serialNo":"TestDeviceOne:26"}
{"serialNo":"TestDeviceOne:27"}
{"serialNo":"TestDeviceOne:28"}
{"serialNo":"TestDeviceOne:29"}
{"serialNo":"TestDeviceOne:30"}
{"serialNo":"TestDeviceOne:31"}
{"serialNo":"TestDeviceOne:32"}
{"serialNo":"TestDeviceOne:33"}
{"serialNo":"TestDeviceOne:34"}
{"serialNo":"TestDeviceOne:35"}
{"serialNo":"TestDeviceOne:36"}
{"serialNo":"TestDeviceOne:37"}
{"serialNo":"TestDeviceOne:38"}
{"serialNo":"TestDeviceOne:39"}
{"serialNo":"TestDeviceOne:40"}
{"serialNo":"TestDeviceOne:41"}
{"serialNo":"TestDeviceOne:42"}
{"serialNo":"TestDeviceOne:43"}
{"serialNo":"TestDeviceOne:44"}
{"serialNo":"TestDeviceOne:45"}
{"serialNo":"TestDeviceOne:46"}
{"serialNo":"TestDeviceOne:47"}
{"serialNo":"TestDeviceOne:48"}
{"serialNo":"TestDeviceOne:49"}
{"serialNo":"TestDeviceOne:50"}
{"serialNo":"TestDeviceOne:51"}
{"serialNo":"TestDeviceOne:52"}
{"serialNo":"TestDeviceOne:53"}
{"serialNo":"TestDeviceOne:54"}
{"serialNo":"TestDeviceOne:55"}
{"serialNo":"TestDeviceOne:56"}
{"serialNo":"TestDeviceOne:57"}
{"serialNo":"TestDeviceOne:58"}
{"serialNo":"TestDeviceOne:59"}
{"serialNo":"TestDeviceOne:60"}
{"serialNo":"TestDeviceOne:61"}
{"serialNo":"TestDeviceOne:62"}
{"serialNo":"TestDeviceOne:63"}
{"serialNo":"TestDeviceOne:64"}
{"serialNo":"TestDeviceOne:65"}
{"serialNo":"TestDeviceOne:66"}
{"serialNo":"TestDeviceOne:67"}
{"serialNo":"TestDeviceOne:68"}
{"serialNo":"TestDeviceOne:69"}
{"serialNo":"TestDeviceOne:70"}
{"serialNo":"TestDeviceOne:71"}
{"serialNo":"TestDeviceOne:72"}
{"serialNo":"TestDeviceOne:73"}
{"serialNo":"TestDeviceOne:74"}
{"serialNo":"TestDeviceOne:75"}
{"serialNo":"TestDeviceOne:76"}
{"serialNo":"TestDeviceOne:77"}
{"serialNo":"TestDeviceOne:78"}
{"serialNo":"TestDeviceOne:79"}
{"serialNo":"TestDeviceOne:80"}
{"serialNo":"TestDeviceOne:81"}
{"serialNo":"TestDeviceOne:82"}
{"serialNo":"TestDeviceOne:83"}
{"serialNo":"TestDeviceOne:84"}
{"serialNo":"TestDeviceOne:85"}
{"serialNo":"TestDeviceOne:86"}
{"serialNo":"TestDeviceOne:87"}
{"serialNo":"TestDeviceOne:88"}
{"serialNo":"TestDeviceOne:89"}
{"serialNo":"TestDeviceOne:90"}
{"serialNo":"TestDeviceOne:91"}
{"serialNo":"TestDeviceOne:92"}
{"serialNo":"TestDeviceOne:93"}
{"serialNo":"TestDeviceOne:94"}
{"serialNo":"TestDeviceOne:95"}
{"serialNo":"TestDeviceOne:96"}
{"serialNo":"TestDeviceOne:97"}
{"serialNo":"TestDeviceOne:98"}
{"serialNo":"TestDeviceOne:99"}
{"serialNo":"TestDeviceOne:100"}
