{
    "type": "object",
    "id": "#",
    "required": ["serialNo","serialSig","type","district"],
    "additionalProperties":false,
    "properties": {
        
        "serialNo": {
            "type": "string",
            "id": "serialNo",
            "pattern": "^[A-Za-z0-9]*:[0-9]{1,7}$"
        },
        "serialSig": {
            "type": [
                "string",
                "array"
            ],
            "id": "serialSig",
            "pattern": "^(?:[A-Za-z0-9+/]{4})*(?:[A-Za-z0-9+/]{2}==|[A-Za-z0-9+/]{3}=)?$",
            "items": {
                "type": "object",
                "id": "serialSigs",
                "required": ["WBBID","WBBSig"],
                "additionalProperties":false,
                "properties": {
                    "WBBID": {
                        "type": "string",
                        "id": "WBBID"
                    },
                    "WBBSig": {
                        "type": "string",
                        "id": "WBBSig",
                        "pattern": "^(?:[A-Za-z0-9+/]{4})*(?:[A-Za-z0-9+/]{2}==|[A-Za-z0-9+/]{3}=)?$"
                    }
                }
            }
        },
        "type": {
            "type": "string",
            "id": "type",
            "enum": [
                "startevm"
            ]
        },
        "district": {
			"type":"string",
			"id": "district"
		}
       
    }
}